﻿{
  "SetDate": "To get the rate, enter the date of the exchange rate in the format 'dd.mm.yyyy'",
  "IncorrectDate": "Invalid date format!",
  "Setcurrency": "Enter the currency in the format like 'USD'",
  "IncorrectCurrency": "Wrong currency format or currency does not exist",
  "NoData": "There is no data",
  "Sale": "Sale: ",
  "Purchase": "Purchase: ",
  "RequestDate": "Currency rate to UAH on",
  "Setculture": "Для выбора Русского - '1' , English - '2' "
}